Initial state: 3 4 3 1 2
     Day: 1 -- 2 3 2 0 1
     Day: 2 -- 1 2 1 6 0 8
     Day: 3 -- 0 1 0 5 6 7 8
     Day: 4 -- 6 0 6 4 5 6 7 8 8 8
     Day: 5 -- 5 6 5 3 4 5 6 7 7 7 8 8
     Day: 6 -- 4 5 4 2 3 4 5 6 6 6 7 7 8 8 8
     Day: 7 -- 3 4 3 1 2 3 4 5 5 5 6 6 7 7 7 8 8
     Day: 8 -- 2 3 2 0 1 2 3 4 4 4 5 5 6 6 6 7 7 8 8 8
     Day: 9 -- 1 2 1 6 0 1 2 3 3 3 4 4 5 5 5 6 6 7 7 7 8 8 8
     Day: 10 -- 0 1 0 5 6 0 1 2 2 2 3 3 4 4 4 5 5 6 6 6 7 7 7 8 8 8 8
     Day: 11 -- 6 0 6 4 5 6 0 1 1 1 2 2 3 3 3 4 4 5 5 5 6 6 6 7 7 7 7 8 8 8 8 8 8
     Day: 12 -- 5 6 5 3 4 5 6 0 0 0 1 1 2 2 2 3 3 4 4 4 5 5 5 6 6 6 6 7 7 7 7 7 7 8 8 8 8 8 8
     Day: 13 -- 4 5 4 2 3 4 5 6 6 6 0 0 1 1 1 2 2 3 3 3 4 4 4 5 5 5 5 6 6 6 6 6 6 7 7 7 7 7 7 8 8 8 8 8 8 8 8 8
     Day: 14 -- 3 4 3 1 2 3 4 5 5 5 6 6 0 0 0 1 1 2 2 2 3 3 3 4 4 4 4 5 5 5 5 5 5 6 6 6 6 6 6 7 7 7 7 7 7 7 7 7 8 8 8 8 8 8 8 8
     Day: 15 -- 2 3 2 0 1 2 3 4 4 4 5 5 6 6 6 0 0 1 1 1 2 2 2 3 3 3 3 4 4 4 4 4 4 5 5 5 5 5 5 6 6 6 6 6 6 6 6 6 7 7 7 7 7 7 7 7 8 8 8 8 8 8 8 8 8 8 8 8
     Day: 16 -- 1 2 1 6 0 1 2 3 3 3 4 4 5 5 5 6 6 0 0 0 1 1 1 2 2 2 2 3 3 3 3 3 3 4 4 4 4 4 4 5 5 5 5 5 5 5 5 5 6 6 6 6 6 6 6 6 7 7 7 7 7 7 7 7 7 7 7 7 8 8 8 8 8 8 8 8 8 8 8
     Day: 17 -- 0 1 0 5 6 0 1 2 2 2 3 3 4 4 4 5 5 6 6 6 0 0 0 1 1 1 1 2 2 2 2 2 2 3 3 3 3 3 3 4 4 4 4 4 4 4 4 4 5 5 5 5 5 5 5 5 6 6 6 6 6 6 6 6 6 6 6 6 7 7 7 7 7 7 7 7 7 7 7 8 8 8 8 8 8 8 8 8 8 8 8 8 8 8 8
     Day: 18 -- 6 0 6 4 5 6 0 1 1 1 2 2 3 3 3 4 4 5 5 5 6 6 6 0 0 0 0 1 1 1 1 1 1 2 2 2 2 2 2 3 3 3 3 3 3 3 3 3 4 4 4 4 4 4 4 4 5 5 5 5 5 5 5 5 5 5 5 5 6 6 6 6 6 6 6 6 6 6 6 7 7 7 7 7 7 7 7 7 7 7 7 7 7 7 7 8 8 8 8 8 8 8 8 8 8 8 8 8 8 8 8 8
No. of Fish: 112
